<svg xmlns="http://www.w3.org/2000/svg" width="512" height="512" viewBox="0 0 512.00035 512" style="enable-background:new 0 0 512 512" xml:space="preserve">
  <path xmlns="http://www.w3.org/2000/svg" d="M511.996094 251.632812c-.347656-47.042968-39.308594-85.3125-86.847656-85.3125h-1.761719c-6.78125-44.265624-43.105469-78.929687-88.148438-83.171874C328.1875 36.152344 287.539062 0 238.609375 0h-4.53125c-51.273437 0-93.175781 40.902344-94.78125 91.792969-33.125 6.917969-58.082031 36.34375-58.082031 71.492187v4.03125C36.050781 169.5625 0 207.011719 0 252.726562c0 47.152344 38.363281 85.515626 85.515625 85.515626h201.722656c3.605469 58.164062 51.773438 104.65625 110.941407 105.238281.378906.003906.746093.003906 1.125.003906 61.386718-.003906 111.636718-49.636719 112.242187-111.160156.148437-14.921875-2.601563-29.429688-7.988281-42.878907 5.628906-11.738281 8.535156-24.664062 8.4375-37.8125zM30 252.726562c0-30.613281 24.902344-55.515624 55.515625-55.515624h25.699219v-33.925782c0-23.726562 19.304687-43.03125 43.03125-43.03125h15V94.828125C169.246094 59.082031 198.328125 30 234.074219 30h4.535156c37.335937 0 67.710937 30.375 67.710937 67.710938v15h19.597657c37.832031 0 68.605469 30.777343 68.605469 68.605468v15h30.625c31.121093 0 56.621093 24.914063 56.847656 55.535156.011718 1.128907-.019532 2.253907-.082032 3.375-.808593-.878906-1.625-1.75-2.464843-2.609374-20.996094-21.410157-49.070313-33.367188-79.058594-33.660157-29.953125-.300781-58.292969 11.101563-79.707031 32.097657-16.101563 15.789062-26.855469 35.585937-31.324219 57.1875H85.515625C54.902344 308.242188 30 283.335938 30 252.726562zm426.882812 137.234376c-15.691406 15.386718-36.453124 23.710937-58.40625 23.519531-45.363281-.445313-81.902343-37.710938-81.457031-83.074219.21875-21.972656 8.976563-42.546875 24.667969-57.929688 15.492188-15.191406 35.910156-23.523437 57.574219-23.523437.277343 0 .554687 0 .832031.003906 21.972656.214844 42.546875 8.976563 57.933594 24.664063 15.382812 15.691406 23.738281 36.433594 23.519531 58.40625-.214844 21.976562-8.976563 42.550781-24.664063 57.933594zm0 0" data-original="#000000"/>
  <path xmlns="http://www.w3.org/2000/svg" d="m388.703125 329.851562-17.148437-17.148437-21.214844 21.210937 38.363281 38.363282 61.25-61.25-21.214844-21.210938zm0 0" data-original="#000000"/>
</svg>
