<svg width="512" height="512" viewBox="0 0 512 512" fill="none" xmlns="http://www.w3.org/2000/svg">
<g clip-path="url(#clip0_304_2)">
<path d="M256.982 71.3542L255.894 71.3582C216.112 71.6382 178.594 87.3705 150.253 115.655C121.911 143.942 106.106 181.428 105.75 221.21C105.37 263.679 123.011 304.603 154.148 333.489C165.123 343.67 171.417 357.917 171.417 372.576V454.438H202V457.018C202 487.335 226.665 512.001 256.983 512.001C287.3 512.001 311.965 487.335 311.965 457.018V454.438H342.548V372.393C342.548 357.787 348.715 343.726 359.466 333.814C390.45 305.252 408.221 264.713 408.221 222.593C408.22 139.2 340.375 71.3542 256.982 71.3542V71.3542ZM281.959 457.017C281.959 470.79 270.755 481.996 256.981 481.996C243.208 481.996 232.002 470.79 232.002 457.017V454.437H281.958V457.017H281.959ZM201.421 424.433V387.578H312.542V424.433H201.421ZM339.128 311.752C325.911 323.936 317.105 340.114 313.896 357.573H271.984V305.394L312.761 279.167V234.007H282.756V262.79L256.982 279.368L231.207 262.79V234.007H201.203V279.167L241.979 305.394V357.573H200.024C196.758 340.11 187.872 323.846 174.553 311.491C149.59 288.334 135.447 255.525 135.752 221.479C136.341 155.709 190.332 101.826 256.104 101.361L256.981 101.358C323.829 101.358 378.215 155.743 378.215 222.592C378.216 256.357 363.969 288.854 339.128 311.752V311.752ZM240.997 0H271.002V40.5398H240.997V0ZM131.655 37.2316L157.639 22.2295L177.961 57.427L151.977 72.4292L131.655 37.2316ZM55.6362 124.237L70.6383 98.2529L105.836 118.575L90.8337 144.559L55.6362 124.237ZM33.3027 207.591H73.9465V237.595H33.3027V207.591ZM438.053 207.591H478.697V237.595H438.053V207.591ZM406.15 118.57L441.349 98.2471L456.351 124.231L421.152 144.553L406.15 118.57ZM334.032 57.4358L354.354 22.2383L380.338 37.2404L360.016 72.4379L334.032 57.4358Z" fill="black"/>
</g>
<defs>
<clipPath id="clip0_304_2">
<rect width="512" height="512" fill="white"/>
</clipPath>
</defs>
</svg>
