<svg xmlns="http://www.w3.org/2000/svg" width="512" height="512" style="enable-background:new 0 0 512 512" xml:space="preserve">
  <g xmlns="http://www.w3.org/2000/svg">
    <path d="M512 65.5H113.667v60H59.104v60H0v261h392v-24h60v-56h60zm-482 150h332v82.602l-27.851-31.077-99.28 110.785-40.935-43.481-73.639 82.171H30zm200.092 201H160.58l33.9-37.828zm41.203 0-15.787-16.769 78.642-87.755L362 343.053V416.5zM422 392.5h-30v-207H89.104v-30H422zm60-56h-30v-211H143.667v-30H482z" data-original="#000000"/>
    <path d="M150 290.5c0-24.813-20.187-45-45-45s-45 20.187-45 45 20.187 45 45 45 45-20.187 45-45zm-60 0c0-8.271 6.729-15 15-15s15 6.729 15 15-6.729 15-15 15-15-6.729-15-15z" data-original="#000000"/>
  </g>
</svg>
