<svg width="512" height="512" viewBox="0 0 512 512" fill="none" xmlns="http://www.w3.org/2000/svg">
<g clip-path="url(#clip0_506_2)">
<path d="M256 269.902C305.608 269.902 345.967 229.543 345.967 179.935C345.967 130.327 305.608 89.9673 256 89.9673C206.392 89.9673 166.032 130.327 166.032 179.935C166.032 229.543 206.392 269.902 256 269.902ZM256 119.956C289.072 119.956 315.978 146.863 315.978 179.935C315.978 213.007 289.072 239.913 256 239.913C222.928 239.913 196.021 213.007 196.021 179.935C196.021 146.863 222.928 119.956 256 119.956Z" fill="black"/>
<path d="M405.352 280.315C425.371 250.596 435.934 215.971 435.934 179.935C435.934 80.7188 355.216 0 255.999 0C156.783 0 76.0645 80.7188 76.0645 179.935C76.0645 215.971 86.6276 250.596 106.646 280.315L255.999 512L405.352 280.315ZM255.999 29.9892C338.68 29.9892 405.945 97.2549 405.945 179.935C405.945 208.303 398.073 235.604 383.151 259.404C383.099 259.486 266.198 440.83 255.999 456.651C243.475 437.222 147.289 288.014 128.847 259.404C113.926 235.604 106.054 208.304 106.054 179.935C106.054 97.2549 173.319 29.9892 255.999 29.9892V29.9892Z" fill="black"/>
</g>
<defs>
<clipPath id="clip0_506_2">
<rect width="512" height="512" fill="white"/>
</clipPath>
</defs>
</svg>
