<svg xmlns="http://www.w3.org/2000/svg" width="512" height="512" style="enable-background:new 0 0 512 512" xml:space="preserve">
  <path d="M471.652 331.89c14.724-12.745 24.066-31.549 24.066-52.505 0-38.297-31.156-69.454-69.453-69.454-3.946 0-7.811.348-11.579.984-6.992-11.645-16.672-21.491-28.172-28.697 14.72-12.745 24.06-31.546 24.06-52.5 0-38.297-31.156-69.454-69.453-69.454s-69.454 31.157-69.454 69.454c0 20.956 9.343 39.76 24.067 52.505-11.496 7.205-21.172 17.048-28.162 28.689-3.764-.634-7.624-.981-11.565-.981-3.946 0-7.811.348-11.579.984-6.99-11.642-16.667-21.486-28.163-28.691 14.724-12.745 24.067-31.549 24.067-52.505 0-38.297-31.157-69.454-69.454-69.454s-69.453 31.157-69.453 69.454c0 20.953 9.34 39.755 24.06 52.499-11.499 7.205-21.179 17.051-28.171 28.695-3.764-.634-7.624-.981-11.565-.981-38.297 0-69.453 31.157-69.453 69.454 0 20.953 9.34 39.755 24.06 52.499C16.145 347.055 0 373.961 0 404.58v47.156h512V404.58c0-30.615-16.141-57.519-40.348-72.69zm-45.386-91.959c21.755 0 39.453 17.699 39.453 39.454s-17.698 39.454-39.453 39.454-39.454-17.699-39.454-39.454c-.001-21.756 17.699-39.454 39.454-39.454zM341.122 90.264c21.755 0 39.453 17.699 39.453 39.454s-17.698 39.454-39.453 39.454-39.454-17.699-39.454-39.454 17.699-39.454 39.454-39.454zm-85.114 149.667c21.755 0 39.454 17.699 39.454 39.454s-17.699 39.454-39.454 39.454-39.453-17.699-39.453-39.454c0-21.756 17.698-39.454 39.453-39.454zM170.879 90.264c21.755 0 39.454 17.699 39.454 39.454s-17.699 39.454-39.454 39.454-39.453-17.699-39.453-39.454 17.698-39.454 39.453-39.454zM85.75 239.931c21.755 0 39.454 17.699 39.454 39.454s-17.699 39.454-39.454 39.454-39.453-17.699-39.453-39.454c0-21.756 17.698-39.454 39.453-39.454zm55.734 181.805H30V404.58c0-30.736 25.006-55.742 55.742-55.742s55.742 25.006 55.742 55.742zm29.387-27.242c-3.107-26.38-18.227-49.124-39.734-62.604 14.724-12.745 24.067-31.549 24.067-52.505 0-23.498-11.741-44.292-29.652-56.867 10.123-14.12 26.658-23.346 45.319-23.346 18.664 0 35.202 9.229 45.324 23.354-17.905 12.575-29.641 33.366-29.641 56.859 0 20.953 9.34 39.755 24.06 52.499-21.512 13.479-36.635 36.226-39.743 62.61zm140.871 27.242H200.258V404.58c0-30.736 25.006-55.742 55.742-55.742s55.742 25.006 55.742 55.742zm29.387-27.242c-3.107-26.38-18.227-49.124-39.734-62.604 14.724-12.745 24.067-31.549 24.067-52.505 0-23.498-11.741-44.292-29.652-56.867 10.123-14.12 26.659-23.346 45.319-23.346 18.664 0 35.202 9.229 45.324 23.354-17.905 12.575-29.641 33.366-29.641 56.859 0 20.954 9.34 39.755 24.061 52.5-21.513 13.478-36.636 36.225-39.744 62.609zM482 421.736H370.516V404.58c0-30.736 25.006-55.742 55.742-55.742S482 373.844 482 404.58z" data-original="#000000" xmlns="http://www.w3.org/2000/svg"/>
</svg>
