<svg xmlns="http://www.w3.org/2000/svg" width="512" height="512" viewBox="0 0 682.66669 682.66669" style="enable-background:new 0 0 512 512" xml:space="preserve">
  <defs>
    <clipPath clipPathUnits="userSpaceOnUse" id="a">
      <path d="M0 512h512V0H0Z" data-original="#000000"/>
    </clipPath>
  </defs>
  <g clip-path="url(#a)" transform="matrix(1.33333 0 0 -1.33333 0 682.66667)">
    <path d="M0 0h90v-452h-360V0h90" style="stroke:#000;stroke-width:30;stroke-linecap:butt;stroke-linejoin:miter;stroke-miterlimit:10;stroke-dasharray:none;stroke-opacity:1" fill="none" stroke="#000" stroke-width="30" stroke-miterlimit="10" data-original="#000000" transform="translate(285 467)"/>
    <path d="M0 0c0 16.569-13.431 30-30 30-16.569 0-30-13.431-30-30h-60v-60H60V0Z" style="stroke:#000;stroke-width:30;stroke-linecap:butt;stroke-linejoin:miter;stroke-miterlimit:10;stroke-dasharray:none;stroke-opacity:1" fill="none" stroke="#000" stroke-width="30" stroke-miterlimit="10" data-original="#000000" transform="translate(225 467)"/>
    <path d="M0 0h90" style="stroke:#000;stroke-width:30;stroke-linecap:butt;stroke-linejoin:miter;stroke-miterlimit:10;stroke-dasharray:none;stroke-opacity:1" fill="none" stroke="#000" stroke-width="30" stroke-miterlimit="10" data-original="#000000" transform="translate(180 107)"/>
    <path d="M0 0h150" style="stroke:#000;stroke-width:30;stroke-linecap:butt;stroke-linejoin:miter;stroke-miterlimit:10;stroke-dasharray:none;stroke-opacity:1" fill="none" stroke="#000" stroke-width="30" stroke-miterlimit="10" data-original="#000000" transform="translate(180 317)"/>
    <path d="M0 0h150" style="stroke:#000;stroke-width:30;stroke-linecap:butt;stroke-linejoin:miter;stroke-miterlimit:10;stroke-dasharray:none;stroke-opacity:1" fill="none" stroke="#000" stroke-width="30" stroke-miterlimit="10" data-original="#000000" transform="translate(180 167)"/>
    <path d="M0 0h90" style="stroke:#000;stroke-width:30;stroke-linecap:butt;stroke-linejoin:miter;stroke-miterlimit:10;stroke-dasharray:none;stroke-opacity:1" fill="none" stroke="#000" stroke-width="30" stroke-miterlimit="10" data-original="#000000" transform="translate(180 257)"/>
    <path d="m0 0 30-30 60 60" style="stroke:#000;stroke-width:30;stroke-linecap:butt;stroke-linejoin:miter;stroke-miterlimit:10;stroke-dasharray:none;stroke-opacity:1" fill="none" stroke="#000" stroke-width="30" stroke-miterlimit="10" data-original="#000000" transform="translate(60 317)"/>
    <path d="m0 0 60-60" style="stroke:#000;stroke-width:30;stroke-linecap:square;stroke-linejoin:miter;stroke-miterlimit:10;stroke-dasharray:none;stroke-opacity:1" fill="none" stroke="#000" stroke-width="30" stroke-linecap="square" stroke-miterlimit="10" data-original="#000000" transform="translate(75 167)"/>
    <path d="m0 0-60-60" style="stroke:#000;stroke-width:30;stroke-linecap:square;stroke-linejoin:miter;stroke-miterlimit:10;stroke-dasharray:none;stroke-opacity:1" fill="none" stroke="#000" stroke-width="30" stroke-linecap="square" stroke-miterlimit="10" data-original="#000000" transform="translate(135 167)"/>
    <path d="M0 0v-270l-30-60-30 60V0Z" style="stroke:#000;stroke-width:30;stroke-linecap:butt;stroke-linejoin:miter;stroke-miterlimit:10;stroke-dasharray:none;stroke-opacity:1" fill="none" stroke="#000" stroke-width="30" stroke-miterlimit="10" data-original="#000000" transform="translate(497 377)"/>
    <path d="M0 0h60" style="stroke:#000;stroke-width:30;stroke-linecap:butt;stroke-linejoin:miter;stroke-miterlimit:10;stroke-dasharray:none;stroke-opacity:1" fill="none" stroke="#000" stroke-width="30" stroke-miterlimit="10" data-original="#000000" transform="translate(437 137)"/>
    <path d="M0 0h60" style="stroke:#000;stroke-width:30;stroke-linecap:butt;stroke-linejoin:miter;stroke-miterlimit:10;stroke-dasharray:none;stroke-opacity:1" fill="none" stroke="#000" stroke-width="30" stroke-miterlimit="10" data-original="#000000" transform="translate(437 317)"/>
  </g>
</svg>
