<svg xmlns="http://www.w3.org/2000/svg" width="512" height="512" style="enable-background:new 0 0 512 512" xml:space="preserve">
  <g xmlns="http://www.w3.org/2000/svg">
    <path d="M387.093 295.271c-2.821-34.513-26.815-83.389-71.433-145.458-34.522-48.025-81.074-100.039-81.074-100.039s-26.869 30.007-46.605 54.689c-7.473-14.769-18.225-31.64-32.186-50.472C138.567 30.754 111.026 0 111.026 0S80.429 34.176 61.501 60.506c-27.027 37.599-40.165 65.889-40.165 86.488 0 45.923 34.695 83.888 79.247 89.078-12.484 26.117-18.786 48.153-18.786 65.898 0 84.248 68.541 152.789 152.789 152.789 16.623 0 32.809-2.618 48.307-7.792C299.661 485.214 337.879 512 382.242 512c59.784 0 108.422-48.638 108.422-108.422 0-58.157-46.03-105.76-103.571-108.307zm-276.067-88.587c-32.913 0-59.69-26.776-59.69-59.689 0-22.519 33.038-69.583 59.659-101.531 18.436 22.248 46.229 59.141 56.15 85.836-4.486 5.956-9.053 12.143-13.633 18.515-14.59 20.297-26.965 39.177-37.125 56.612-1.78.156-3.568.257-5.361.257zm123.56 218.076c-67.706 0-122.789-55.083-122.789-122.789 0-52.574 80.356-157.347 122.789-206.941 41.41 48.401 118.929 149.347 122.637 203.047-47.761 11.325-83.402 54.327-83.402 105.502 0 4.899.333 9.72.965 14.449-12.864 4.464-26.338 6.732-40.2 6.732zM382.242 482c-43.241 0-78.421-35.18-78.421-78.422 0-43.241 35.18-78.421 78.421-78.421 43.242 0 78.422 35.18 78.422 78.421 0 43.242-35.18 78.422-78.422 78.422zM411.723 172.74c34.775 0 63.066-28.291 63.066-63.066 0-5.221 0-21.107-26.527-61.163C435.988 29.978 411.723 0 411.723 0s-24.266 29.978-36.539 48.511c-26.527 40.056-26.527 55.942-26.527 61.163-.001 34.775 28.29 63.066 63.066 63.066zm0-124.311c17.47 23.884 33.066 50.519 33.066 61.245 0 18.232-14.834 33.066-33.066 33.066s-33.066-14.834-33.066-33.066c-.001-10.727 15.597-37.362 33.066-61.245z" data-original="#000000"/>
    <path d="m370.776 406.241-16.703-16.703-21.213 21.213 37.916 37.916 60.849-60.849-21.213-21.213z" data-original="#000000"/>
  </g>
</svg>
